Driver version is 2.1.0.
Joystick (Microsoft X-Box 360 pad 0) has 8 axes (X, Y, Z, Rx, Ry, Rz, Hat0X, Hat0Y)
and 11 buttons (BtnA, BtnB, BtnX, BtnY, BtnTL, BtnTR, BtnSelect, BtnStart, BtnMode, BtnThumbL, BtnThumbR).
Testing ... (interrupt to exit)
Event: type 129, time 1523921459, number 0, value 0
Event: type 129, time 1523921459, number 1, value 0
Event: type 129, time 1523921459, number 2, value 0
Event: type 129, time 1523921459, number 3, value 0
Event: type 129, time 1523921459, number 4, value 0
Event: type 129, time 1523921459, number 5, value 0
Event: type 129, time 1523921459, number 6, value 0
Event: type 129, time 1523921459, number 7, value 0
Event: type 129, time 1523921459, number 8, value 0
Event: type 129, time 1523921459, number 9, value 0
Event: type 129, time 1523921459, number 10, value 0
Event: type 130, time 1523921459, number 0, value 0
Event: type 130, time 1523921459, number 1, value 0
Event: type 130, time 1523921459, number 2, value -32767
Event: type 130, time 1523921459, number 3, value 0
Event: type 130, time 1523921459, number 4, value 0
Event: type 130, time 1523921459, number 5, value -32767
Event: type 130, time 1523921459, number 6, value 0
Event: type 130, time 1523921459, number 7, value 0
Event: type 2, time 1523926132, number 0, value -838
Event: type 2, time 1523926132, number 1, value -352
Event: type 2, time 1523926142, number 0, value -1631
Event: type 2, time 1523926142, number 1, value -863
Event: type 2, time 1523926152, number 0, value -2960
Event: type 2, time 1523926152, number 1, value -1565
Event: type 2, time 1523926159, number 0, value -5085
Event: type 2, time 1523926159, number 1, value -2666
Event: type 2, time 1523926169, number 0, value -6194
Event: type 2, time 1523926169, number 1, value -4060
Event: type 2, time 1523926176, number 0, value -7246
Event: type 2, time 1523926176, number 1, value -5010
Event: type 2, time 1523926186, number 0, value -8622
Event: type 2, time 1523926186, number 1, value -6050
Event: type 2, time 1523926192, number 0, value -9506
Event: type 2, time 1523926192, number 1, value -7184
Event: type 2, time 1523926206, number 0, value -11234
Event: type 2, time 1523926206, number 1, value -8480
Event: type 2, time 1523926212, number 0, value -14296
Event: type 2, time 1523926212, number 1, value -10658
Event: type 2, time 1523926222, number 0, value -17478
Event: type 2, time 1523926222, number 1, value -14389
Event: type 2, time 1523926232, number 0, value -20212
Event: type 2, time 1523926232, number 1, value -17785
Event: type 2, time 1523926242, number 0, value -24414
Event: type 2, time 1523926242, number 1, value -22126
Event: type 2, time 1523926249, number 0, value -28226
Event: type 2, time 1523926249, number 1, value -26918
Event: type 2, time 1523926259, number 0, value -31255
Event: type 2, time 1523926259, number 1, value -32635
Event: type 2, time 1523926266, number 0, value -32767
Event: type 2, time 1523926266, number 1, value -32767
Event: type 2, time 1523926736, number 0, value -32765
Event: type 2, time 1523926742, number 0, value -32246
Event: type 2, time 1523926752, number 0, value -31213
Event: type 2, time 1523926762, number 0, value -30529
Event: type 2, time 1523926772, number 0, value -29846
Event: type 2, time 1523926782, number 0, value -29675
Event: type 2, time 1523926789, number 0, value -29505
Event: type 2, time 1523926826, number 0, value -29336
Event: type 2, time 1523926842, number 0, value -28658
Event: type 2, time 1523926852, number 0, value -27645
Event: type 2, time 1523926862, number 0, value -26975
Event: type 2, time 1523926869, number 0, value -26641
Event: type 2, time 1523926879, number 0, value -25974
Event: type 2, time 1523926886, number 0, value -25808
Event: type 2, time 1523926896, number 0, value -25642
Event: type 2, time 1523926916, number 0, value -25477
Event: type 2, time 1523926922, number 0, value -24816
Event: type 2, time 1523926932, number 0, value -23668
Event: type 2, time 1523926942, number 0, value -22855
Event: type 2, time 1523926952, number 0, value -22209
Event: type 2, time 1523926962, number 0, value -20927
Event: type 2, time 1523926969, number 0, value -19818
Event: type 2, time 1523926986, number 0, value -19661
Event: type 2, time 1523927032, number 0, value -19818
Event: type 2, time 1523927066, number 0, value -19661
Event: type 2, time 1523927112, number 0, value -19818
Event: type 2, time 1523927122, number 0, value -19661
Event: type 2, time 1523927149, number 0, value -19818
Event: type 2, time 1523927156, number 0, value -19191
Event: type 2, time 1523927166, number 0, value -18257
Event: type 2, time 1523927176, number 0, value -17487
Event: type 2, time 1523927186, number 0, value -17029
Event: type 2, time 1523927192, number 0, value -16420
Event: type 2, time 1523927202, number 0, value -15818
Event: type 2, time 1523927212, number 0, value -14773
Event: type 2, time 1523927219, number 0, value -14625
Event: type 1, time 1523927239, number 0, value 1
Event: type 2, time 1523927239, number 0, value -14329
Event: type 2, time 1523927246, number 0, value -14182
Event: type 2, time 1523927266, number 0, value -14037
Event: type 2, time 1523927276, number 0, value -13890
Event: type 2, time 1523927282, number 0, value -13599
Event: type 2, time 1523927292, number 0, value -13453
Event: type 2, time 1523927382, number 0, value -13307
Event: type 2, time 1523927392, number 0, value -13018
Event: type 2, time 1523927402, number 0, value -12586
Event: type 2, time 1523927409, number 0, value -11873
Event: type 2, time 1523927419, number 0, value -11309
Event: type 2, time 1523927426, number 0, value -11028
Event: type 2, time 1523927436, number 0, value -10610
Event: type 2, time 1523927446, number 0, value -10057
Event: type 2, time 1523927456, number 0, value -9238
Event: type 2, time 1523927462, number 0, value -8297
Event: type 2, time 1523927472, number 0, value -6981
Event: type 2, time 1523927482, number 0, value -5570
Event: type 2, time 1523927492, number 0, value -5192
Event: type 2, time 1523927499, number 0, value -4444
Event: type 2, time 1523927509, number 0, value -3464
Event: type 2, time 1523927516, number 0, value -2147
Event: type 2, time 1523927526, number 0, value -518
Event: type 2, time 1523927536, number 0, value 0
Event: type 2, time 1523927546, number 0, value 312
Event: type 2, time 1523927552, number 0, value 1604
Event: type 2, time 1523927562, number 0, value 3681
Event: type 2, time 1523927572, number 0, value 5062
Event: type 2, time 1523927582, number 0, value 6481
Event: type 2, time 1523927589, number 0, value 7451
Event: type 2, time 1523927599, number 0, value 8604
Event: type 2, time 1523927606, number 0, value 10294
Event: type 2, time 1523927616, number 0, value 12390
Event: type 2, time 1523927626, number 0, value 13827
Event: type 2, time 1523927636, number 0, value 14557
Event: type 2, time 1523927642, number 0, value 15289
Event: type 2, time 1523927652, number 0, value 16410
Event: type 2, time 1523927662, number 0, value 17351
Event: type 2, time 1523927672, number 0, value 17918
Event: type 2, time 1523927672, number 1, value -32722
Event: type 2, time 1523927679, number 0, value 18298
Event: type 2, time 1523927679, number 1, value -32575
Event: type 2, time 1523927689, number 0, value 18679
Event: type 2, time 1523927689, number 1, value -32429
Event: type 2, time 1523927696, number 0, value 19067
Event: type 2, time 1523927706, number 0, value 20036
Event: type 2, time 1523927706, number 1, value -32136
Event: type 2, time 1523927716, number 0, value 20817
Event: type 2, time 1523927716, number 1, value -31845
Event: type 2, time 1523927726, number 0, value 21598
Event: type 2, time 1523927726, number 1, value -31268
Event: type 2, time 1523927732, number 0, value 22394
Event: type 2, time 1523927732, number 1, value -30982
Event: type 2, time 1523927742, number 0, value 22800
Event: type 2, time 1523927752, number 0, value 23199
Event: type 2, time 1523927752, number 1, value -30697
Event: type 2, time 1523927762, number 0, value 23811
Event: type 2, time 1523927769, number 0, value 24220
Event: type 2, time 1523927779, number 0, value 24628
Event: type 2, time 1523927779, number 1, value -30559
Event: type 2, time 1523927786, number 0, value 24834
Event: type 2, time 1523927832, number 0, value 25040
Event: type 2, time 1523927842, number 0, value 25661
Event: type 2, time 1523927852, number 0, value 26490
Event: type 2, time 1523927852, number 1, value -30424
Event: type 2, time 1523927859, number 0, value 26908
Event: type 2, time 1523927859, number 1, value -30284
Event: type 2, time 1523927906, number 0, value 26698
Event: type 2, time 1523927912, number 0, value 26488
Event: type 2, time 1523927922, number 0, value 25656
Event: type 2, time 1523927932, number 0, value 23392
Event: type 2, time 1523927932, number 1, value -30280
Event: type 2, time 1523927939, number 0, value 22376
Event: type 2, time 1523927939, number 1, value -30272
Event: type 2, time 1523927952, number 0, value 21974
Event: type 2, time 1523927952, number 1, value -30269
Event: type 2, time 1523927959, number 0, value 21374
Event: type 2, time 1523927959, number 1, value -30403
Event: type 2, time 1523927966, number 0, value 20383
Event: type 2, time 1523927966, number 1, value -30543
Event: type 2, time 1523927976, number 0, value 17859
Event: type 2, time 1523927976, number 1, value -30970
Event: type 2, time 1523927986, number 0, value 16162
Event: type 2, time 1523927986, number 1, value -31406
Event: type 2, time 1523927996, number 0, value 14518
Event: type 2, time 1523927996, number 1, value -32143
Event: type 2, time 1523928002, number 0, value 13623
Event: type 2, time 1523928002, number 1, value -32587
Event: type 2, time 1523928012, number 0, value 11147
Event: type 2, time 1523928012, number 1, value -32767
Event: type 2, time 1523928022, number 0, value 8764
Event: type 2, time 1523928032, number 0, value 7287
Event: type 2, time 1523928039, number 0, value 6004
Event: type 2, time 1523928049, number 0, value 5218
Event: type 2, time 1523928059, number 0, value 4443
Event: type 2, time 1523928066, number 0, value 4137
Event: type 2, time 1523928076, number 0, value 3984
Event: type 2, time 1523928102, number 0, value 3831
Event: type 2, time 1523928122, number 0, value 3681
Event: type 2, time 1523928129, number 0, value 3379
Event: type 2, time 1523928139, number 0, value 3229
Event: type 2, time 1523928146, number 0, value 2336
Event: type 2, time 1523928156, number 0, value 1315
Event: type 2, time 1523928166, number 0, value 454
Event: type 2, time 1523928176, number 0, value 0
Event: type 2, time 1523928182, number 0, value -289
Event: type 2, time 1523928192, number 0, value -862
Event: type 2, time 1523928202, number 0, value -2028
Event: type 2, time 1523928212, number 0, value -3222
Event: type 2, time 1523928219, number 0, value -3707
Event: type 2, time 1523928229, number 0, value -4568
Event: type 2, time 1523928236, number 0, value -5066
Event: type 2, time 1523928246, number 0, value -5824
Event: type 2, time 1523928256, number 0, value -7372
Event: type 2, time 1523928266, number 0, value -9103
Event: type 2, time 1523928272, number 0, value -10889
Event: type 2, time 1523928282, number 0, value -12583
Event: type 2, time 1523928292, number 0, value -14173
Event: type 2, time 1523928302, number 0, value -14759
Event: type 2, time 1523928309, number 0, value -14901
Event: type 2, time 1523928309, number 1, value -32650
Event: type 2, time 1523928319, number 0, value -15193
Event: type 2, time 1523928319, number 1, value -32502
Event: type 2, time 1523928326, number 0, value -15493
Event: type 2, time 1523928372, number 0, value -15643
Event: type 2, time 1523928402, number 0, value -15337
Event: type 2, time 1523928402, number 1, value -32354
Event: type 2, time 1523928409, number 0, value -14600
Event: type 2, time 1523928409, number 1, value -32503
Event: type 2, time 1523928416, number 0, value -14157
Event: type 2, time 1523928426, number 0, value -13281
Event: type 2, time 1523928436, number 0, value -12709
Event: type 2, time 1523928436, number 1, value -32656
Event: type 2, time 1523928446, number 0, value -12423
Event: type 2, time 1523928452, number 0, value -11569
Event: type 2, time 1523928462, number 0, value -11007
Event: type 2, time 1523928472, number 0, value -10595
Event: type 2, time 1523928472, number 1, value -32767
Event: type 2, time 1523928482, number 0, value -10324
Event: type 2, time 1523928489, number 0, value -10048
Event: type 2, time 1523928506, number 0, value -9911
Event: type 2, time 1523928516, number 0, value -9774
Event: type 2, time 1523928526, number 0, value -9501
Event: type 2, time 1523928536, number 0, value -9094
Event: type 2, time 1523928542, number 0, value -8824
Event: type 2, time 1523928552, number 0, value -8427
Event: type 2, time 1523928562, number 0, value -8160
Event: type 2, time 1523928572, number 0, value -7763
Event: type 2, time 1523928579, number 0, value -7500
Event: type 2, time 1523928589, number 0, value -7238
Event: type 2, time 1523928596, number 0, value -6718
Event: type 2, time 1523928606, number 0, value -5948
Event: type 2, time 1523928616, number 0, value -5570
Event: type 2, time 1523928626, number 0, value -5192
Event: type 2, time 1523928632, number 0, value -4816
Event: type 2, time 1523928642, number 0, value -4197
Event: type 2, time 1523928652, number 0, value -3464
Event: type 2, time 1523928662, number 0, value -2622
Event: type 2, time 1523928669, number 0, value -1210
Event: type 2, time 1523928679, number 0, value -978
Event: type 2, time 1523928689, number 0, value -747
Event: type 2, time 1523928706, number 0, value -632
Event: type 2, time 1523928716, number 0, value -289
Event: type 2, time 1523928722, number 0, value -61
Event: type 2, time 1523928732, number 0, value 0
Event: type 2, time 1523928742, number 0, value 312
Event: type 2, time 1523928749, number 0, value 454
Event: type 2, time 1523928759, number 0, value 739
Event: type 2, time 1523928769, number 0, value 1315
Event: type 2, time 1523928779, number 0, value 1896
Event: type 2, time 1523928789, number 0, value 2929
Event: type 2, time 1523928796, number 0, value 3681
Event: type 2, time 1523928806, number 0, value 4290
Event: type 2, time 1523928812, number 0, value 5373
Event: type 2, time 1523928822, number 0, value 6163
Event: type 2, time 1523928832, number 0, value 6963
Event: type 2, time 1523928839, number 0, value 7287
Event: type 2, time 1523928879, number 0, value 7125
Event: type 2, time 1523928886, number 0, value 6963
Event: type 2, time 1523928896, number 0, value 6803
Event: type 2, time 1523928912, number 0, value 6642
Event: type 2, time 1523928929, number 0, value 6481
Event: type 2, time 1523928939, number 0, value 6322
Event: type 2, time 1523928949, number 0, value 5846
Event: type 2, time 1523928959, number 0, value 5373
Event: type 2, time 1523928969, number 0, value 4596
Event: type 2, time 1523928976, number 0, value 4137
Event: type 2, time 1523928986, number 0, value 3984
Event: type 2, time 1523928992, number 0, value 3831
Event: type 2, time 1523929002, number 0, value 3681
Event: type 2, time 1523929012, number 0, value 3529
Event: type 2, time 1523929022, number 0, value 3229
Event: type 2, time 1523929029, number 0, value 3079
Event: type 2, time 1523929059, number 0, value 2780
Event: type 2, time 1523929076, number 0, value 2336
Event: type 2, time 1523929082, number 0, value 2190
Event: type 2, time 1523929092, number 0, value 2042
Event: type 2, time 1523929139, number 0, value 1896
Event: type 2, time 1523929149, number 0, value 2042
Event: type 2, time 1523929172, number 0, value 1896
Event: type 2, time 1523929209, number 0, value 1750
Event: type 2, time 1523929229, number 0, value 1604
Event: type 2, time 1523929256, number 0, value 1460
Event: type 2, time 1523929452, number 0, value 1026
Event: type 2, time 1523929462, number 0, value 739
Event: type 2, time 1523929472, number 0, value 454
Event: type 2, time 1523929479, number 0, value 312
Event: type 2, time 1523929516, number 0, value 170
Event: type 2, time 1523929542, number 0, value 0
Event: type 2, time 1523929569, number 0, value -175
Event: type 2, time 1523929579, number 0, value -404
Event: type 2, time 1523929589, number 0, value -632
Event: type 2, time 1523929599, number 0, value -1094
Event: type 2, time 1523929606, number 0, value -1910
Event: type 2, time 1523929616, number 0, value -2862
Event: type 2, time 1523929622, number 0, value -3222
Event: type 2, time 1523929632, number 0, value -3586
Event: type 2, time 1523929642, number 0, value -3707
Event: type 2, time 1523929652, number 0, value -3829
Event: type 2, time 1523929659, number 0, value -4074
Event: type 2, time 1523929669, number 0, value -4197
Event: type 2, time 1523929679, number 0, value -4321
Event: type 2, time 1523929696, number 0, value -4568
Event: type 2, time 1523929712, number 0, value -4692
Event: type 2, time 1523929742, number 0, value -4816
Event: type 2, time 1523929749, number 0, value -4692
Event: type 2, time 1523929759, number 0, value -4816
Event: type 2, time 1523929839, number 0, value -5066
Event: type 2, time 1523929849, number 0, value -5318
Event: type 2, time 1523929869, number 0, value -5444
Event: type 2, time 1523929879, number 0, value -5570
Event: type 2, time 1523929886, number 0, value -5697
Event: type 2, time 1523929892, number 0, value -5824
Event: type 2, time 1523929902, number 0, value -5951
Event: type 2, time 1523929959, number 0, value -6206
Event: type 2, time 1523929976, number 0, value -6592
Event: type 2, time 1523929982, number 0, value -7372
Event: type 2, time 1523929992, number 0, value -8031
Event: type 2, time 1523930002, number 0, value -8832
Event: type 2, time 1523930012, number 0, value -9783
Event: type 2, time 1523930019, number 0, value -10333
Event: type 2, time 1523930029, number 0, value -10610
Event: type 2, time 1523930039, number 0, value -10749
Event: type 2, time 1523930049, number 0, value -10889
Event: type 2, time 1523930056, number 0, value -11028
Event: type 2, time 1523930092, number 0, value -11168
Event: type 2, time 1523930102, number 0, value -11725
Event: type 2, time 1523930109, number 0, value -12432
Event: type 2, time 1523930119, number 0, value -12862
Event: type 2, time 1523930129, number 0, value -13150
Event: type 2, time 1523930139, number 0, value -13295
Event: type 2, time 1523930146, number 0, value -13440
Event: type 2, time 1523930156, number 0, value -13587
Event: type 2, time 1523930199, number 0, value -13732
Event: type 2, time 1523930282, number 1, value -32729
Event: type 2, time 1523930289, number 1, value -32767
Event: type 2, time 1523930299, number 0, value -13873
Event: type 2, time 1523930299, number 1, value -32728
Event: type 2, time 1523930309, number 0, value -14608
Event: type 2, time 1523930319, number 0, value -14756
Event: type 2, time 1523930326, number 0, value -15053
Event: type 2, time 1523930336, number 0, value -15196
Event: type 2, time 1523930336, number 1, value -32578
Event: type 2, time 1523930342, number 0, value -15346
Event: type 2, time 1523930379, number 0, value -15496
Event: type 2, time 1523930399, number 0, value -15646
Event: type 2, time 1523930409, number 0, value -16247
Event: type 2, time 1523930416, number 0, value -16546
Event: type 2, time 1523930416, number 1, value -32429
Event: type 2, time 1523930426, number 0, value -16698
Event: type 2, time 1523930432, number 0, value -16540
Event: type 2, time 1523930432, number 1, value -32283
Event: type 2, time 1523930442, number 0, value -16692
Event: type 2, time 1523930622, number 0, value -16540
Event: type 2, time 1523930632, number 1, value -32138
Event: type 2, time 1523930659, number 1, value -32283
Event: type 2, time 1523930669, number 1, value -32138
Event: type 2, time 1523930686, number 1, value -32283
Event: type 2, time 1523930696, number 0, value -16383
Event: type 2, time 1523930696, number 1, value -32138
Event: type 2, time 1523930702, number 0, value -16236
Event: type 2, time 1523930702, number 1, value -32284
Event: type 2, time 1523930712, number 0, value -16085
Event: type 2, time 1523930722, number 0, value -15780
Event: type 2, time 1523930722, number 1, value -32139
Event: type 2, time 1523930729, number 0, value -15635
Event: type 2, time 1523930729, number 1, value -32285
Event: type 2, time 1523930739, number 0, value -15335
Event: type 2, time 1523930749, number 0, value -15036
Event: type 2, time 1523930759, number 0, value -14888
Event: type 2, time 1523930769, number 0, value -14734
Event: type 2, time 1523930769, number 1, value -32140
Event: type 2, time 1523930776, number 1, value -32286
Event: type 2, time 1523930786, number 0, value -14590
Event: type 2, time 1523930802, number 0, value -14443
Event: type 2, time 1523930812, number 0, value -14301
Event: type 2, time 1523930812, number 1, value -32433
Event: type 2, time 1523930829, number 0, value -14154
Event: type 2, time 1523930872, number 1, value -32287
Event: type 2, time 1523930882, number 1, value -32434
Event: type 2, time 1523931099, number 0, value -14008
Event: type 2, time 1523931109, number 0, value -13862
Event: type 2, time 1523931116, number 0, value -13715
Event: type 2, time 1523931252, number 0, value -13862
Event: type 2, time 1523931262, number 0, value -13715
Event: type 2, time 1523931406, number 0, value -13862
Event: type 2, time 1523931416, number 0, value -13715
Event: type 2, time 1523931909, number 0, value -12844
Event: type 2, time 1523931919, number 0, value -12557
Event: type 2, time 1523931929, number 0, value -11844
Event: type 2, time 1523931936, number 0, value -11145
Event: type 2, time 1523931936, number 1, value -32588
Event: type 2, time 1523931946, number 0, value -10864
Event: type 2, time 1523931956, number 0, value -10592
Event: type 2, time 1523931956, number 1, value -32738
Event: type 2, time 1523931966, number 0, value -10315
Event: type 2, time 1523931972, number 0, value -10177
Event: type 2, time 1523931982, number 0, value -10040
Event: type 2, time 1523931989, number 0, value -9902
Event: type 2, time 1523931999, number 0, value -9765
Event: type 2, time 1523932009, number 0, value -9492
Event: type 2, time 1523932019, number 0, value -8956
Event: type 2, time 1523932019, number 1, value -32767
Event: type 2, time 1523932026, number 0, value -8547
Event: type 2, time 1523932026, number 1, value -32743
Event: type 2, time 1523932036, number 0, value -8419
Event: type 2, time 1523932036, number 1, value -32767
Event: type 2, time 1523932046, number 0, value -8285
Event: type 2, time 1523932056, number 0, value -8152
Event: type 2, time 1523932062, number 0, value -8285
Event: type 2, time 1523932072, number 0, value -8152
Event: type 2, time 1523932109, number 0, value -8285
Event: type 2, time 1523932116, number 0, value -8152
Event: type 2, time 1523932126, number 0, value -8285
Event: type 2, time 1523932136, number 0, value -8152
Event: type 2, time 1523932169, number 0, value -8285
Event: type 2, time 1523932189, number 0, value -8152
Event: type 2, time 1523932206, number 0, value -8285
Event: type 2, time 1523932216, number 0, value -8152
Event: type 2, time 1523932242, number 0, value -8285
Event: type 2, time 1523932252, number 0, value -8152
Event: type 2, time 1523932262, number 0, value -8285
Event: type 2, time 1523932279, number 0, value -8152
Event: type 2, time 1523932289, number 0, value -8285
Event: type 2, time 1523932296, number 0, value -8152
Event: type 2, time 1523932306, number 0, value -8285
Event: type 2, time 1523932336, number 0, value -8152
Event: type 2, time 1523932369, number 0, value -8019
Event: type 2, time 1523932379, number 0, value -7887
Event: type 2, time 1523932386, number 0, value -8019
Event: type 2, time 1523932396, number 0, value -7887
Event: type 2, time 1523932432, number 0, value -8019
Event: type 2, time 1523932576, number 0, value -8152
Event: type 2, time 1523932586, number 0, value -8285
Event: type 2, time 1523932596, number 0, value -8552
Event: type 2, time 1523932602, number 0, value -8686
Event: type 2, time 1523932619, number 0, value -8821
Event: type 2, time 1523932639, number 0, value -8956
Event: type 2, time 1523932676, number 0, value -8821
Event: type 2, time 1523932686, number 0, value -8956
Event: type 2, time 1523932709, number 0, value -9092
Event: type 2, time 1523932719, number 0, value -9226
Event: type 2, time 1523932739, number 0, value -9362
Event: type 2, time 1523932746, number 0, value -9498
Event: type 2, time 1523932766, number 0, value -9634
Event: type 2, time 1523932782, number 0, value -10045
Event: type 2, time 1523932792, number 0, value -11016
Event: type 2, time 1523932799, number 0, value -11720
Event: type 2, time 1523932809, number 0, value -12718
Event: type 2, time 1523932819, number 0, value -13295
Event: type 2, time 1523932829, number 0, value -14165
Event: type 2, time 1523932829, number 1, value -32727
Event: type 2, time 1523932836, number 0, value -14459
Event: type 2, time 1523932846, number 0, value -14608
Event: type 2, time 1523932872, number 0, value -14756
Event: type 2, time 1523932882, number 0, value -14608
Event: type 2, time 1523932909, number 0, value -14756
Event: type 2, time 1523933226, number 0, value -14608
Event: type 2, time 1523933232, number 0, value -14756
Event: type 2, time 1523933279, number 0, value -14608
Event: type 2, time 1523933286, number 0, value -14756
Event: type 2, time 1523933396, number 0, value -14608
Event: type 2, time 1523933422, number 0, value -14459
Event: type 2, time 1523933439, number 0, value -14312
Event: type 2, time 1523933449, number 0, value -14165
Event: type 2, time 1523933459, number 0, value -13873
Event: type 2, time 1523933466, number 0, value -13581
Event: type 2, time 1523933476, number 0, value -13289
Event: type 2, time 1523933486, number 0, value -13145
Event: type 2, time 1523933502, number 0, value -13000
Event: type 2, time 1523933512, number 0, value -12856
Event: type 2, time 1523933519, number 0, value -12712
Event: type 2, time 1523933529, number 0, value -11997
Event: type 2, time 1523933539, number 0, value -11714
Event: type 2, time 1523933549, number 0, value -11572
Event: type 2, time 1523933549, number 1, value -32729
Event: type 2, time 1523933566, number 0, value -11714
Event: type 2, time 1523933586, number 0, value -11572
Event: type 2, time 1523933656, number 0, value -11714
Event: type 2, time 1523933666, number 0, value -11572
Event: type 2, time 1523933772, number 0, value -11714
Event: type 2, time 1523933789, number 0, value -11572
Event: type 2, time 1523933799, number 1, value -32587
Event: type 2, time 1523933809, number 0, value -11696
Event: type 2, time 1523933809, number 1, value -32291
Event: type 2, time 1523933819, number 0, value -11525
Event: type 2, time 1523933819, number 1, value -31552
Event: type 2, time 1523933826, number 0, value -11508
Event: type 2, time 1523933826, number 1, value -30813
Event: type 2, time 1523933836, number 0, value -11052
Event: type 2, time 1523933836, number 1, value -30369
Event: type 2, time 1523933846, number 0, value -10587
Event: type 2, time 1523933846, number 1, value -29333
Event: type 2, time 1523933852, number 0, value -9632
Event: type 2, time 1523933852, number 1, value -26670
Event: type 2, time 1523933862, number 0, value -8177
Event: type 2, time 1523933862, number 1, value -24581
Event: type 2, time 1523933872, number 0, value -7173
Event: type 2, time 1523933872, number 1, value -22933
Event: type 2, time 1523933879, number 0, value -5687
Event: type 2, time 1523933879, number 1, value -21109
Event: type 2, time 1523933889, number 0, value -5113
Event: type 2, time 1523933889, number 1, value -19609
Event: type 2, time 1523933899, number 0, value -4684
Event: type 2, time 1523933899, number 1, value -18407
Event: type 2, time 1523933909, number 0, value -4373
Event: type 2, time 1523933909, number 1, value -17213
Event: type 2, time 1523933916, number 0, value -3808
Event: type 2, time 1523933916, number 1, value -15558
Event: type 2, time 1523933926, number 0, value -3088
Event: type 2, time 1523933926, number 1, value -14471
Event: type 2, time 1523933936, number 0, value -2659
Event: type 2, time 1523933936, number 1, value -12814
Event: type 2, time 1523933942, number 0, value -2382
Event: type 2, time 1523933942, number 1, value -11759
Event: type 2, time 1523933952, number 0, value -2121
Event: type 2, time 1523933952, number 1, value -10849
Event: type 2, time 1523933962, number 0, value -1878
Event: type 2, time 1523933962, number 1, value -10086
Event: type 2, time 1523933969, number 0, value -1294
Event: type 2, time 1523933969, number 1, value -9121
Event: type 2, time 1523933979, number 0, value -500
Event: type 2, time 1523933979, number 1, value -7082
Event: type 2, time 1523933989, number 0, value -166
Event: type 2, time 1523933989, number 1, value -4942
Event: type 2, time 1523933999, number 0, value 0
Event: type 2, time 1523933999, number 1, value 0
Event: type 2, time 1523934762, number 0, value -584
Event: type 2, time 1523934772, number 0, value -1555
Event: type 2, time 1523934782, number 0, value -1748
Event: type 2, time 1523934826, number 0, value -1943
Event: type 2, time 1523934879, number 0, value -1555
Event: type 2, time 1523934889, number 0, value -584
Event: type 2, time 1523934899, number 0, value 0
Event: type 2, time 1523935826, number 0, value 957
Event: type 2, time 1523935826, number 1, value -28
Event: type 2, time 1523935832, number 0, value 2650
Event: type 2, time 1523935832, number 1, value -461
Event: type 2, time 1523935842, number 0, value 3974
Event: type 2, time 1523935842, number 1, value -731
Event: type 2, time 1523935852, number 0, value 5494
Event: type 2, time 1523935852, number 1, value -967
Event: type 2, time 1523935859, number 0, value 7025
Event: type 2, time 1523935859, number 1, value -1182
Event: type 2, time 1523935869, number 0, value 8334
Event: type 2, time 1523935869, number 1, value -1297
Event: type 2, time 1523935879, number 0, value 9220
Event: type 2, time 1523935879, number 1, value -1432
Event: type 2, time 1523935886, number 0, value 10316
Event: type 2, time 1523935886, number 1, value -1510
Event: type 2, time 1523935896, number 0, value 10097
Event: type 2, time 1523935896, number 1, value -1506
Event: type 2, time 1523935916, number 0, value 9658
Event: type 2, time 1523935916, number 1, value -1464
Event: type 2, time 1523935922, number 0, value 8782
Event: type 2, time 1523935922, number 1, value -1397
Event: type 2, time 1523935932, number 0, value 7691
Event: type 2, time 1523935932, number 1, value -1304
Event: type 2, time 1523935942, number 0, value 6175
Event: type 2, time 1523935942, number 1, value -1151
Event: type 2, time 1523935949, number 0, value 4462
Event: type 2, time 1523935949, number 1, value -936
Event: type 2, time 1523935959, number 0, value 3410
Event: type 2, time 1523935959, number 1, value -772
Event: type 2, time 1523935969, number 0, value 2172
Event: type 2, time 1523935969, number 1, value -534
Event: type 2, time 1523935976, number 0, value 935
Event: type 2, time 1523935976, number 1, value -208
Event: type 2, time 1523935986, number 0, value 0
Event: type 2, time 1523935986, number 1, value 0
Event: type 2, time 1523961219, number 0, value -1179
Event: type 2, time 1523961229, number 0, value -2753
Event: type 2, time 1523961229, number 1, value 57
Event: type 2, time 1523961236, number 0, value -4348
Event: type 2, time 1523961236, number 1, value 125
Event: type 2, time 1523961246, number 0, value -5548
Event: type 2, time 1523961246, number 1, value 168
Event: type 2, time 1523961252, number 0, value -7945
Event: type 2, time 1523961252, number 1, value 165
Event: type 2, time 1523961266, number 0, value -10343
Event: type 2, time 1523961266, number 1, value 0
Event: type 2, time 1523961272, number 0, value -14152
Event: type 2, time 1523961282, number 0, value -17161
Event: type 2, time 1523961282, number 1, value -99
Event: type 2, time 1523961292, number 0, value -21369
Event: type 2, time 1523961292, number 1, value -278
Event: type 2, time 1523961299, number 0, value -24780
Event: type 2, time 1523961299, number 1, value -888
Event: type 2, time 1523961309, number 0, value -28188
Event: type 2, time 1523961309, number 1, value -1365
Event: type 2, time 1523961319, number 0, value -32767
Event: type 2, time 1523961319, number 1, value -2536
Event: type 2, time 1523961329, number 1, value -2915
Event: type 2, time 1523961332, number 1, value -3392
Event: type 2, time 1523961346, number 1, value -3968
Event: type 2, time 1523961352, number 1, value -4455
Event: type 2, time 1523961362, number 1, value -4651
Event: type 2, time 1523961579, number 0, value -29236
Event: type 2, time 1523961579, number 1, value -4539
Event: type 2, time 1523961589, number 0, value -12798
Event: type 2, time 1523961589, number 1, value -3649
Event: type 2, time 1523961596, number 0, value 0
Event: type 2, time 1523961596, number 1, value 0
Event: type 1, time 1523980709, number 0, value 0
